file,tissue_name,tissue_id,tiss_cat_name,tiss_cat_id
/gadb-giggle-abs-path/Adipose_Subcutaneous_eQTLs.bed.gz,Adipose Subcutaneous,1,Adipose,1
/gadb-giggle-abs-path/Adipose_Visceral_Omentum_eQTLs.bed.gz,Adipose Visceral Omentum,2,Adipose,1
/gadb-giggle-abs-path/Adrenal_Gland_eQTLs.bed.gz,Adrenal Gland,3,Endocrine,10
/gadb-giggle-abs-path/Artery_Aorta_eQTLs.bed.gz,Artery Aorta,4,Blood Vessel,3
/gadb-giggle-abs-path/Artery_Coronary_eQTLs.bed.gz,Artery Coronary,5,Blood Vessel,3
/gadb-giggle-abs-path/Artery_Tibial_eQTLs.bed.gz,Artery Tibial,6,Blood Vessel,3
/gadb-giggle-abs-path/Brain_Anterior_cingulate_cortex_BA24_eQTLs.bed.gz,Brain Anterior cingulate cortex BA24,7,Brain,4
/gadb-giggle-abs-path/Brain_Caudate_basal_ganglia_eQTLs.bed.gz,Brain Caudate basal ganglia,8,Brain,4
/gadb-giggle-abs-path/Brain_Cerebellar_Hemisphere_eQTLs.bed.gz,Brain Cerebellar Hemisphere,9,Brain,4
/gadb-giggle-abs-path/Brain_Cerebellum_eQTLs.bed.gz,Brain Cerebellum,10,Brain,4
/gadb-giggle-abs-path/Brain_Cortex_eQTLs.bed.gz,Brain Cortex,11,Brain,4
/gadb-giggle-abs-path/Brain_Frontal_Cortex_BA9_eQTLs.bed.gz,Brain Frontal Cortex BA9,12,Brain,4
/gadb-giggle-abs-path/Brain_Hippocampus_eQTLs.bed.gz,Brain Hippocampus,13,Brain,4
/gadb-giggle-abs-path/Brain_Hypothalamus_eQTLs.bed.gz,Brain Hypothalamus,14,Brain,4
/gadb-giggle-abs-path/Brain_Nucleus_accumbens_basal_ganglia_eQTLs.bed.gz,Brain Nucleus accumbens basal ganglia,15,Brain,4
/gadb-giggle-abs-path/Brain_Putamen_basal_ganglia_eQTLs.bed.gz,Brain Putamen basal ganglia,16,Brain,4
/gadb-giggle-abs-path/Breast_Mammary_Tissue_eQTLs.bed.gz,Breast Mammary Tissue,17,Breast,5
/gadb-giggle-abs-path/Cells_EBV-transformed_lymphocytes_eQTLs.bed.gz,Cells EBV-transformed lymphocytes,18,Blood,2
/gadb-giggle-abs-path/Cells_Transformed_fibroblasts_eQTLs.bed.gz,Cells Transformed fibroblasts,19,Connective Tissue,7
/gadb-giggle-abs-path/Colon_Sigmoid_eQTLs.bed.gz,Colon Sigmoid,20,Digestive,8
/gadb-giggle-abs-path/Colon_Transverse_eQTLs.bed.gz,Colon Transverse,21,Digestive,8
/gadb-giggle-abs-path/Esophagus_Gastroesophageal_Junction_eQTLs.bed.gz,Esophagus Gastroesophageal Junction,22,Digestive,8
/gadb-giggle-abs-path/Esophagus_Mucosa_eQTLs.bed.gz,Esophagus Mucosa,23,Digestive,8
/gadb-giggle-abs-path/Esophagus_Muscularis_eQTLs.bed.gz,Esophagus Muscularis,24,Digestive,8
/gadb-giggle-abs-path/Heart_Atrial_Appendage_eQTLs.bed.gz,Heart Atrial Appendage,25,Heart,16
/gadb-giggle-abs-path/Heart_Left_Ventricle_eQTLs.bed.gz,Heart Left Ventricle,26,Heart,16
/gadb-giggle-abs-path/Liver_eQTLs.bed.gz,Liver,27,Liver,19
/gadb-giggle-abs-path/Lung_eQTLs.bed.gz,Lung,28,Lung,20
/gadb-giggle-abs-path/Muscle_Skeletal_eQTLs.bed.gz,Muscle Skeletal,29,Skeletal Muscle,25
/gadb-giggle-abs-path/Nerve_Tibial_eQTLs.bed.gz,Nerve Tibial,30,Nervous,22
/gadb-giggle-abs-path/Ovary_eQTLs.bed.gz,Ovary,31,Female Reproductive,14
/gadb-giggle-abs-path/Pancreas_eQTLs.bed.gz,Pancreas,32,Digestive,8
/gadb-giggle-abs-path/Pituitary_eQTLs.bed.gz,Pituitary,33,Endocrine,10
/gadb-giggle-abs-path/Prostate_eQTLs.bed.gz,Prostate,34,Male Reproductive,21
/gadb-giggle-abs-path/Skin_Not_Sun_Exposed_Suprapubic_eQTLs.bed.gz,Skin Not Sun Exposed Suprapubic,35,Epithelial,11
/gadb-giggle-abs-path/Skin_Sun_Exposed_Lower_leg_eQTLs.bed.gz,Skin Sun Exposed Lower leg,36,Epithelial,11
/gadb-giggle-abs-path/Small_Intestine_Terminal_Ileum_eQTLs.bed.gz,Small Intestine Terminal Ileum,37,Digestive,8
/gadb-giggle-abs-path/Spleen_eQTLs.bed.gz,Spleen,38,Immune Organ,17
/gadb-giggle-abs-path/Stomach_eQTLs.bed.gz,Stomach,39,Digestive,8
/gadb-giggle-abs-path/Testis_eQTLs.bed.gz,Testis,40,Male Reproductive,21
/gadb-giggle-abs-path/Thyroid_eQTLs.bed.gz,Thyroid,41,Endocrine,10
/gadb-giggle-abs-path/Uterus_eQTLs.bed.gz,Uterus,42,Female Reproductive,14
/gadb-giggle-abs-path/Vagina_eQTLs.bed.gz,Vagina,43,Female Reproductive,14
/gadb-giggle-abs-path/Whole_Blood_eQTLs.bed.gz,Whole Blood,44,Blood,2