file,tissue_name,tissue_id,tiss_cat_name,tiss_cat_id
/gadb-giggle-abs-path/E001_enhancers.bed.gz,ES-I3 Cells,1,ESC,12
/gadb-giggle-abs-path/E002_enhancers.bed.gz,ES-WA7 Cells,2,ESC,12
/gadb-giggle-abs-path/E003_enhancers.bed.gz,H1 Cells,3,ESC,12
/gadb-giggle-abs-path/E004_enhancers.bed.gz,H1 BMP4 Derived Mesendoderm Cultured Cells,4,Embryo,9
/gadb-giggle-abs-path/E005_enhancers.bed.gz,H1 BMP4 Derived Trophoblast Cultured Cells,5,Embryo,9
/gadb-giggle-abs-path/E006_enhancers.bed.gz,H1 Derived Mesenchymal Stem Cell,6,Stem Cell,27
/gadb-giggle-abs-path/E007_enhancers.bed.gz,H1 Derived Neuronal Progenitor Cultured Cells,7,Stem Cell,27
/gadb-giggle-abs-path/E008_enhancers.bed.gz,H9 Cells,8,ESC,12
/gadb-giggle-abs-path/E009_enhancers.bed.gz,H9 Derived Neuronal Progenitor Cultured Cells,9,Stem Cell,27
/gadb-giggle-abs-path/E010_enhancers.bed.gz,H9 Derived Neuron Cultured Cells,10,Nervous,22
/gadb-giggle-abs-path/E011_enhancers.bed.gz,hESC Derived CD184+ Endoderm Cultured Cells,11,Embryo,9
/gadb-giggle-abs-path/E012_enhancers.bed.gz,hESC Derived CD56+ Ectoderm Cultured Cells,12,Embryo,9
/gadb-giggle-abs-path/E013_enhancers.bed.gz,hESC Derived CD56+ Mesoderm Cultured Cells,13,Embryo,9
/gadb-giggle-abs-path/E014_enhancers.bed.gz,HUES48 Cells,14,ESC,12
/gadb-giggle-abs-path/E015_enhancers.bed.gz,HUES6 Cells,15,ESC,12
/gadb-giggle-abs-path/E016_enhancers.bed.gz,HUES64 Cells,16,ESC,12
/gadb-giggle-abs-path/E017_enhancers.bed.gz,IMR90 fetal lung fibroblasts Cell Line,17,Connective Tissue,7
/gadb-giggle-abs-path/E018_enhancers.bed.gz,iPS-15b Cells,18,iPSC,18
/gadb-giggle-abs-path/E019_enhancers.bed.gz,iPS-18 Cells,19,iPSC,18
/gadb-giggle-abs-path/E020_enhancers.bed.gz,iPS-20b Cells,20,iPSC,18
/gadb-giggle-abs-path/E021_enhancers.bed.gz,iPS DF 6.9 Cells,21,iPSC,18
/gadb-giggle-abs-path/E022_enhancers.bed.gz,iPS DF 19.11 Cells,22,iPSC,18
/gadb-giggle-abs-path/E023_enhancers.bed.gz,Mesenchymal Stem Cell Derived Adipocyte Cultured Cells,23,Stem Cell,27
/gadb-giggle-abs-path/E024_enhancers.bed.gz,ES-UCSF4 Cells,24,ESC,12
/gadb-giggle-abs-path/E025_enhancers.bed.gz,Adipose Derived Mesenchymal Stem Cell Cultured Cells,25,Stem Cell,27
/gadb-giggle-abs-path/E026_enhancers.bed.gz,Bone Marrow Derived Cultured Mesenchymal Stem Cell,26,Stem Cell,27
/gadb-giggle-abs-path/E027_enhancers.bed.gz,Breast Myoepithelial Primary Cells,27,Epithelial,11
/gadb-giggle-abs-path/E028_enhancers.bed.gz,Breast variant Human Mammary Epithelial Cells (vHMEC),28,Epithelial,11
/gadb-giggle-abs-path/E029_enhancers.bed.gz,Primary monocytes from peripheral blood,29,Blood,2
/gadb-giggle-abs-path/E030_enhancers.bed.gz,Primary neutrophils from peripheral blood,30,Blood,2
/gadb-giggle-abs-path/E031_enhancers.bed.gz,Primary B cells from cord blood,31,Blood,2
/gadb-giggle-abs-path/E032_enhancers.bed.gz,Primary B cells from peripheral blood,32,Blood,2
/gadb-giggle-abs-path/E033_enhancers.bed.gz,Primary T cells from cord blood,33,Blood,2
/gadb-giggle-abs-path/E034_enhancers.bed.gz,Primary T cells from peripheral blood,34,Blood,2
/gadb-giggle-abs-path/E035_enhancers.bed.gz,Primary hematopoietic Stem Cell,35,Stem Cell,27
/gadb-giggle-abs-path/E036_enhancers.bed.gz,Primary hematopoietic Stem Cell short term culture,36,Stem Cell,27
/gadb-giggle-abs-path/E037_enhancers.bed.gz,Primary T helper memory cells from peripheral blood 2,37,Blood,2
/gadb-giggle-abs-path/E038_enhancers.bed.gz,Primary T helper naive cells from peripheral blood,38,Blood,2
/gadb-giggle-abs-path/E039_enhancers.bed.gz,Primary T helper naive cells from peripheral blood,39,Blood,2
/gadb-giggle-abs-path/E040_enhancers.bed.gz,Primary T helper memory cells from peripheral blood 1,40,Blood,2
/gadb-giggle-abs-path/E041_enhancers.bed.gz,Primary T helper cells PMA-I stimulated,41,Blood,2
/gadb-giggle-abs-path/E042_enhancers.bed.gz,Primary T helper 17 cells PMA-I stimulated,42,Blood,2
/gadb-giggle-abs-path/E043_enhancers.bed.gz,Primary T helper cells from peripheral blood,43,Blood,2
/gadb-giggle-abs-path/E044_enhancers.bed.gz,Primary T regulatory cells from peripheral blood,44,Blood,2
/gadb-giggle-abs-path/E045_enhancers.bed.gz,Primary T cells effector/memory enriched from peripheral blood,45,Blood,2
/gadb-giggle-abs-path/E046_enhancers.bed.gz,Primary Natural Killer cells from peripheral blood,46,Blood,2
/gadb-giggle-abs-path/E047_enhancers.bed.gz,Primary T CD8+ naive cells from peripheral blood,47,Blood,2
/gadb-giggle-abs-path/E048_enhancers.bed.gz,Primary T CD8+ memory cells from peripheral blood,48,Blood,2
/gadb-giggle-abs-path/E049_enhancers.bed.gz,Mesenchymal Stem Cell Derived Chondrocyte Cultured Cells,49,Stem Cell,27
/gadb-giggle-abs-path/E050_enhancers.bed.gz,Primary hematopoietic Stem Cell G-CSF-mobilized Female,50,Stem Cell,27
/gadb-giggle-abs-path/E051_enhancers.bed.gz,Primary hematopoietic Stem Cell G-CSF-mobilized Male,51,Stem Cell,27
/gadb-giggle-abs-path/E052_enhancers.bed.gz,Muscle Satellite Cultured Cells,52,Skeletal Muscle,25
/gadb-giggle-abs-path/E053_enhancers.bed.gz,Cortex derived primary cultured neurospheres,53,Stem Cell,27
/gadb-giggle-abs-path/E054_enhancers.bed.gz,Ganglion Eminence derived primary cultured neurospheres,54,Stem Cell,27
/gadb-giggle-abs-path/E055_enhancers.bed.gz,Foreskin Fibroblast Primary Cells skin01,55,Connective Tissue,7
/gadb-giggle-abs-path/E056_enhancers.bed.gz,Foreskin Fibroblast Primary Cells skin02,56,Connective Tissue,7
/gadb-giggle-abs-path/E057_enhancers.bed.gz,Foreskin Keratinocyte Primary Cells skin02,57,Epithelial,11
/gadb-giggle-abs-path/E058_enhancers.bed.gz,Foreskin Keratinocyte Primary Cells skin03,58,Epithelial,11
/gadb-giggle-abs-path/E059_enhancers.bed.gz,Foreskin Melanocyte Primary Cells skin01,59,Epithelial,11
/gadb-giggle-abs-path/E061_enhancers.bed.gz,Foreskin Melanocyte Primary Cells skin03,60,Epithelial,11
/gadb-giggle-abs-path/E062_enhancers.bed.gz,Primary mononuclear cells from peripheral blood,61,Blood,2
/gadb-giggle-abs-path/E063_enhancers.bed.gz,Adipose Nuclei,62,Adipose,1
/gadb-giggle-abs-path/E065_enhancers.bed.gz,Aorta,63,Blood Vessel,3
/gadb-giggle-abs-path/E066_enhancers.bed.gz,Liver,64,Liver,19
/gadb-giggle-abs-path/E067_enhancers.bed.gz,Brain Angular Gyrus,65,Brain,4
/gadb-giggle-abs-path/E068_enhancers.bed.gz,Brain Anterior Caudate,66,Brain,4
/gadb-giggle-abs-path/E069_enhancers.bed.gz,Brain Cingulate Gyrus,67,Brain,4
/gadb-giggle-abs-path/E070_enhancers.bed.gz,Brain Germinal Matrix,68,Brain,4
/gadb-giggle-abs-path/E071_enhancers.bed.gz,Brain Hippocampus Middle,69,Brain,4
/gadb-giggle-abs-path/E072_enhancers.bed.gz,Brain Inferior Temporal Lobe,70,Brain,4
/gadb-giggle-abs-path/E073_enhancers.bed.gz,Brain_Dorsolateral_Prefrontal_Cortex,71,Brain,4
/gadb-giggle-abs-path/E074_enhancers.bed.gz,Brain Substantia Nigra,72,Brain,4
/gadb-giggle-abs-path/E075_enhancers.bed.gz,Colonic Mucosa,73,Digestive,8
/gadb-giggle-abs-path/E076_enhancers.bed.gz,Colon Smooth Muscle,74,Smooth Muscle,26
/gadb-giggle-abs-path/E077_enhancers.bed.gz,Duodenum Mucosa,75,Digestive,8
/gadb-giggle-abs-path/E078_enhancers.bed.gz,Duodenum Smooth Muscle,76,Smooth Muscle,26
/gadb-giggle-abs-path/E079_enhancers.bed.gz,Esophagus,77,Digestive,8
/gadb-giggle-abs-path/E080_enhancers.bed.gz,Fetal Adrenal Gland,78,Endocrine,10
/gadb-giggle-abs-path/E081_enhancers.bed.gz,Fetal Brain Male,79,Brain,4
/gadb-giggle-abs-path/E082_enhancers.bed.gz,Fetal Brain Female,80,Brain,4
/gadb-giggle-abs-path/E083_enhancers.bed.gz,Fetal Heart,81,Heart,16
/gadb-giggle-abs-path/E084_enhancers.bed.gz,Fetal Intestine Large,82,Digestive,8
/gadb-giggle-abs-path/E085_enhancers.bed.gz,Fetal Intestine Small,83,Digestive,8
/gadb-giggle-abs-path/E086_enhancers.bed.gz,Fetal Kidney,84,Urinary,32
/gadb-giggle-abs-path/E087_enhancers.bed.gz,Pancreatic Islets,85,Digestive,8
/gadb-giggle-abs-path/E088_enhancers.bed.gz,Fetal Lung,86,Lung,20
/gadb-giggle-abs-path/E089_enhancers.bed.gz,Fetal Muscle Trunk,87,Skeletal Muscle,25
/gadb-giggle-abs-path/E090_enhancers.bed.gz,Fetal Muscle Leg,88,Skeletal Muscle,25
/gadb-giggle-abs-path/E091_enhancers.bed.gz,Placenta,89,Placenta,24
/gadb-giggle-abs-path/E092_enhancers.bed.gz,Fetal Stomach,90,Digestive,8
/gadb-giggle-abs-path/E093_enhancers.bed.gz,Fetal Thymus,91,Immune Organ,17
/gadb-giggle-abs-path/E094_enhancers.bed.gz,Gastric,92,Digestive,8
/gadb-giggle-abs-path/E095_enhancers.bed.gz,Left Ventricle,93,Heart,16
/gadb-giggle-abs-path/E096_enhancers.bed.gz,Lung,94,Lung,20
/gadb-giggle-abs-path/E097_enhancers.bed.gz,Ovary,95,Female Reproductive,14
/gadb-giggle-abs-path/E098_enhancers.bed.gz,Pancreas,96,Digestive,8
/gadb-giggle-abs-path/E099_enhancers.bed.gz,Placenta Amnion,97,Placenta,24
/gadb-giggle-abs-path/E100_enhancers.bed.gz,Psoas Muscle,98,Skeletal Muscle,25
/gadb-giggle-abs-path/E101_enhancers.bed.gz,Rectal Mucosa Donor 29,99,Digestive,8
/gadb-giggle-abs-path/E102_enhancers.bed.gz,Rectal Mucosa Donor 31,100,Digestive,8
/gadb-giggle-abs-path/E103_enhancers.bed.gz,Rectal Smooth Muscle,101,Smooth Muscle,26
/gadb-giggle-abs-path/E104_enhancers.bed.gz,Right Atrium,102,Heart,16
/gadb-giggle-abs-path/E105_enhancers.bed.gz,Right Ventricle,103,Heart,16
/gadb-giggle-abs-path/E106_enhancers.bed.gz,Sigmoid Colon,104,Digestive,8
/gadb-giggle-abs-path/E107_enhancers.bed.gz,Skeletal Muscle Male,105,Skeletal Muscle,25
/gadb-giggle-abs-path/E108_enhancers.bed.gz,Skeletal Muscle Female,106,Skeletal Muscle,25
/gadb-giggle-abs-path/E109_enhancers.bed.gz,Small Intestine,107,Digestive,8
/gadb-giggle-abs-path/E110_enhancers.bed.gz,Stomach Mucosa,108,Digestive,8
/gadb-giggle-abs-path/E111_enhancers.bed.gz,Stomach Smooth Muscle,109,Smooth Muscle,26
/gadb-giggle-abs-path/E112_enhancers.bed.gz,Thymus,110,Immune Organ,17
/gadb-giggle-abs-path/E113_enhancers.bed.gz,Spleen,111,Immune Organ,17
/gadb-giggle-abs-path/E114_enhancers.bed.gz,A549 EtOH 0.02pct Lung Carcinoma Cell Line,112,Lung,20
/gadb-giggle-abs-path/E115_enhancers.bed.gz,Dnd41 TCell Leukemia Cell Line,113,Blood,2
/gadb-giggle-abs-path/E116_enhancers.bed.gz,GM12878 Lymphoblastoid Cells,114,Blood,2
/gadb-giggle-abs-path/E117_enhancers.bed.gz,HeLa-S3 Cervical Carcinoma Cell Line,115,Female Reproductive,14
/gadb-giggle-abs-path/E118_enhancers.bed.gz,HepG2 Hepatocellular Carcinoma Cell Line,116,Liver,19
/gadb-giggle-abs-path/E119_enhancers.bed.gz,HMEC Mammary Epithelial Primary Cells,117,Epithelial,11
/gadb-giggle-abs-path/E120_enhancers.bed.gz,HSMM Skeletal Muscle Myoblasts Cells,118,Skeletal Muscle,25
/gadb-giggle-abs-path/E121_enhancers.bed.gz,HSMM cell derived Skeletal Muscle Myotubes Cells,119,Skeletal Muscle,25
/gadb-giggle-abs-path/E122_enhancers.bed.gz,HUVEC Umbilical Vein Endothelial Primary Cells,120,Epithelial,11
/gadb-giggle-abs-path/E123_enhancers.bed.gz,K562 Leukemia Cells,121,Blood,2
/gadb-giggle-abs-path/E124_enhancers.bed.gz,Monocytes-CD14+ RO01746 Primary Cells,122,Blood,2
/gadb-giggle-abs-path/E125_enhancers.bed.gz,NH-A Astrocytes Primary Cells,123,Brain,4
/gadb-giggle-abs-path/E126_enhancers.bed.gz,NHDF-Ad Adult Dermal Fibroblast Primary Cells,124,Connective Tissue,7
/gadb-giggle-abs-path/E127_enhancers.bed.gz,NHEK-Epidermal Keratinocyte Primary Cells,125,Epithelial,11
/gadb-giggle-abs-path/E128_enhancers.bed.gz,NHLF Lung Fibroblast Primary Cells,126,Connective Tissue,7
/gadb-giggle-abs-path/E129_enhancers.bed.gz,Osteoblast Primary Cells,127,Connective Tissue,7